…
Now that's more like it! Let's try unnest again now we can filter out
that pesky null attribute.

    attributes %>% 
        select(business_id, attributes) %>% 
        mutate(num_atts = map_int(attributes, length)) %>% 
        filter(num_atts > 0) %>% 
        unnest %>% 
        separate(attributes, into = c("key", "value"), extra = "merge") 

    ## # A tibble: 161 x 4
    ##               business_id num_atts                        key
    ##  *                  <chr>    <int>                      <chr>
    ##  1 hovoWva_UjbnyLWEbnFvBw       19                    Alcohol
    ##  2 hovoWva_UjbnyLWEbnFvBw       19                   Ambience
    ##  3 hovoWva_UjbnyLWEbnFvBw       19                BikeParking
    ##  4 hovoWva_UjbnyLWEbnFvBw       19 BusinessAcceptsCreditCards
    ##  5 hovoWva_UjbnyLWEbnFvBw       19            BusinessParking
    ##  6 hovoWva_UjbnyLWEbnFvBw       19                GoodForKids
    ##  7 hovoWva_UjbnyLWEbnFvBw       19                GoodForMeal
    ##  8 hovoWva_UjbnyLWEbnFvBw       19                      HasTV
    ##  9 hovoWva_UjbnyLWEbnFvBw       19                 NoiseLevel
    ## 10 hovoWva_UjbnyLWEbnFvBw       19             OutdoorSeating
    ## # ... with 151 more rows, and 1 more variables: value <chr>
…
